{
    "barrios": [
      {
        "nombre": "1. Popular",
        "latitude": "6.304198",
        "longitude": "-75.546418"
      },
      {
        "nombre": "10. La Candelaria",
        "latitude": "6.247708",
        "longitude": "-75.569350"
      },
      {
        "nombre": "11. Laureles",
        "latitude": "6.243447",
        "longitude": "-75.596001"
      },
      {
        "nombre": "12. La America",
        "latitude": "6.255407",
        "longitude": "-75.602696"
      },
      {
        "nombre": "13.  San Javier",
        "latitude": "6.255418",
        "longitude": "-75.621209"
      },
      {
        "nombre": "14. Poblado",
        "latitude": "6.202169",
        "longitude": "-75.564735"
      },
      {
        "nombre": "15. Guayabal",
        "latitude": "6.213011",
        "longitude": "-75.586713"
      },
      {
        "nombre": "16. Belen",
        "latitude": "6.232328",
        "longitude": "-75.599767"
      },
      {
        "nombre": "2. Santa Cruz",
        "latitude": "6.293424",
        "longitude": "-75.558697"
      },
      {
        "nombre": "3. Manrique",
        "latitude": "6.268596",
        "longitude": "-75.567183"
      },
      {
        "nombre": "4. Aranjuez",
        "latitude": "6.277414",
        "longitude": "-75.562034"
      },
      {
        "nombre": "5. Castilla",
        "latitude": "6.292131",
        "longitude": "-75.572891"
      },
      {
        "nombre": "50. Corregimiento de Palmitas",
        "latitude": "6.343643",
        "longitude": "-75.690790"
      },
      {
        "nombre": "6. Doce De Octubre",
        "latitude": "6.300521",
        "longitude": "-75.581406"
      },
      {
        "nombre": "60. Corregimiento de San Cristobal",
        "latitude": "6.278752",
        "longitude": "-75.631945"
      },
      {
        "nombre": "70. Corregimiento de Altavista",
        "latitude": "6.222305",
        "longitude": "-75.610847"
      },
      {
        "nombre": "7. Robledo",
        "latitude": "6.277745",
        "longitude": "-75.596280"
      },
      {
        "nombre": "8. Villa Hermosa",
        "latitude": "5.995215",
        "longitude": "-75.167202"
      },
      {
        "nombre": "80. Corregimiento de San Antonio De Prado",
        "latitude": "6.180727",
        "longitude": "-75.647842"
      },
      {
        "nombre": "9. Buenos Aires",
        "latitude": "6.237410",
        "longitude": "-75.555617"
      },
      {
        "nombre": "90. Corregimiento de Santa Elena",
        "latitude": "6.210723",
        "longitude": "-75.497942"
      },
      {
        "nombre": "Sin información",
        "latitude": "6.244289",
        "longitude": "-75.573108"
      }

    ]
}
